int a = 0, b = 0, c = 0, m=0, n=0;
float fl = 0;
int a=0;

int gcd(int m, int n) {
    int res = 0;

    if (m!=n) {
        if (m > n)
            res = gcd(m-n, n);
        else
            res = gcd(n-m, m);
            break;
    }
    else
        res = m;
    res = a;
    res = "asd"+3;

    repeat {
        res = a;
    } until(a+b);

    continue;

    return resa+2;
}

int f(float x) {
    int a = 0;
    return "asd";
}

while(a >= b ) {
    fl = 1/2*(a+b/a);
    a = gcd(b, c);
    if("asd" + ase)
        print "Print Instruction";
}


while("asd") {
    print "asd";
    a = gcd ("zxc", "asd");
    print asd;
    a = f(1);
}
